{
	"class" : {
		 },
	"instance" : {
		"contents" : "jens 2/4/2009 20:28",
		"contents:" : "jens 2/4/2009 20:28",
		"contentsBounds" : "jens 2/4/2009 20:28",
		"drawSubmorphsOn:" : "jens 2/4/2009 20:28",
		"extent:" : "jens 2/4/2009 20:28",
		"fullBounds" : "jens 2/4/2009 20:28",
		"growthFraction:" : "jens 2/4/2009 20:28",
		"hBarInset:" : "jens 2/4/2009 20:28",
		"hResizing" : "jens 2/4/2009 20:28",
		"hScrollPixels" : "jens 2/4/2009 20:28",
		"hScrollPixels:" : "jens 2/4/2009 20:28",
		"hScrollRelative:" : "jens 2/4/2009 20:28",
		"initialize" : "dto 1/2/2022 17:07",
		"invalidRect:" : "jens 2/4/2009 20:28",
		"isAlignmentMorph" : "jens 2/4/2009 20:28",
		"layoutChanged" : "dto 1/2/2022 17:08",
		"layoutInWidth:height:" : "jens 2/4/2009 20:28",
		"maxScroll" : "jens 2/4/2009 20:28",
		"minHeight" : "jens 2/4/2009 20:28",
		"minWidth" : "jens 2/4/2009 20:28",
		"scrollSubmorphIntoView:" : "jens 2/4/2009 20:28",
		"showHorizontalScrollbar:" : "jens 2/4/2009 20:28",
		"showVerticalScrollbar:" : "jens 2/4/2009 20:28",
		"updateContentsExtent" : "jens 2/5/2009 01:28",
		"updateScrollbars" : "dto 1/2/2022 17:09",
		"vBarInset:" : "jens 2/4/2009 20:28",
		"vResizing" : "jens 2/4/2009 20:28",
		"vScrollPixels" : "jens 2/4/2009 20:28",
		"vScrollPixels:" : "jens 2/4/2009 20:28",
		"vScrollRelative:" : "jens 2/4/2009 20:28",
		"visibleExtent" : "jens 2/4/2009 20:28" } }
