{
	"class" : {
		 },
	"instance" : {
		"adjustToClass:" : "jens 2/7/2009 22:10",
		"allClasses" : "jens 2/9/2009 00:25",
		"arrangePanes" : "jens 2/7/2009 20:29",
		"basics" : "jens 2/4/2009 03:16",
		"buildPanes" : "jens 2/9/2009 01:44",
		"choice" : "jens 2/4/2009 03:24",
		"chooseClassForMethods" : "jens 2/16/2009 12:49",
		"classMenu" : "jens 2/9/2009 00:23",
		"classVars" : "jens 2/7/2009 21:40",
		"classes" : "jens 2/8/2009 23:38",
		"currentMessages" : "jens 2/9/2009 02:04",
		"currentMethodsClass" : "jens 2/9/2009 23:05",
		"currentPackageClasses" : "jens 2/9/2009 00:25",
		"frame:" : "jens 2/7/2009 21:24",
		"globalVars" : "jens 2/7/2009 21:40",
		"initialize" : "jens 2/9/2009 02:12",
		"instanceVars" : "jens 2/7/2009 21:39",
		"menuForCategory:" : "jens 2/9/2009 01:52",
		"messages" : "jens 2/9/2009 02:05",
		"methodsClass" : "jens 2/9/2009 01:56",
		"refresh" : "jens 2/10/2009 14:33",
		"setMethodsClass:" : "jens 2/9/2009 02:04",
		"varMenu" : "jens 2/7/2009 21:48",
		"variables" : "jens 2/4/2009 03:16" } }
