{
	"category" : "Elements",
	"classinstvars" : [
		 ],
	"classvars" : [
		 ],
	"commentStamp" : "",
	"instvars" : [
		"doResizing",
		"insetX",
		"heightPadding",
		"stringMorph",
		"insetY",
		"selectionColor",
		"selectionEnd",
		"selectionStart",
		"undoState",
		"blinkState",
		"lastContents",
		"isKeyboardFocus",
		"acceptWhenFocusLost",
		"frame",
		"isNumeric",
		"client",
		"dragStartIndex",
		"isEditable" ],
	"name" : "TextBoxElementMorph",
	"pools" : [
		 ],
	"super" : "ArgumentElementMorph",
	"type" : "normal" }
