{
	"category" : "Elements",
	"classinstvars" : [
		 ],
	"classvars" : [
		 ],
	"commentStamp" : "",
	"instvars" : [
		"textBox" ],
	"name" : "PrimitiveElementMorph",
	"pools" : [
		 ],
	"super" : "StepElementMorph",
	"type" : "normal" }
