{
	"class" : {
		"basics" : "jens 2/9/2009 23:56",
		"classVarsFor:" : "jens 2/3/2009 10:15",
		"classes" : "jens 2/2/2009 22:42",
		"currentPackageClasses:" : "jens 2/9/2009 00:20",
		"globals" : "jens 2/2/2009 22:41",
		"instVarsFor:" : "jens 2/4/2009 08:30",
		"labelColor" : "jens 2/9/2009 01:24",
		"labelFont" : "dto 1/2/2022 17:44",
		"messagesFor:" : "jens 2/9/2009 22:11",
		"messagesForSelf:" : "jens 2/3/2009 00:16",
		"packageClassesDict" : "jens 2/9/2009 00:10" },
	"instance" : {
		"addElement:" : "jens 2/2/2009 22:20",
		"handlesMouseDown:" : "dto 1/2/2022 18:28",
		"initialize" : "jens 2/3/2009 22:44",
		"isPartsBin" : "jens 1/12/2009 22:50",
		"rootForGrabOf:" : "jens 2/5/2009 20:46" } }
